<?xml version="1.0" encoding="UTF-8"?>
<svg xmlns="http://www.w3.org/2000/svg" xmlns:xlink="http://www.w3.org/1999/xlink" width="239.426pt" height="180.366pt" viewBox="0 0 239.426 180.366" version="1.1">
<defs>
<g>
<symbol overflow="visible" id="glyph0-0">
<path style="stroke:none;" d=""/>
</symbol>
<symbol overflow="visible" id="glyph0-1">
<path style="stroke:none;" d="M 2.109375 -4.6875 L 1.421875 -4.46875 C 1.078125 -4.375 0.90625 -4.34375 0.40625 -4.28125 L 0.296875 -4.265625 L 0.296875 -3.90625 L 0.734375 -3.875 C 0.96875 -3.859375 1 -3.765625 1 -3.1875 L 1 1.546875 C 1 2.078125 0.953125 2.15625 0.640625 2.1875 L 0.296875 2.203125 L 0.296875 2.578125 L 1.578125 2.546875 C 1.703125 2.546875 1.71875 2.546875 3.015625 2.578125 L 3.015625 2.203125 L 2.578125 2.1875 C 2.265625 2.171875 2.21875 2.078125 2.21875 1.546875 L 2.21875 0 C 2.703125 0.140625 2.859375 0.171875 3.09375 0.171875 C 3.4375 0.171875 3.78125 -0.015625 4.46875 -0.546875 C 4.53125 -0.59375 4.578125 -0.640625 4.640625 -0.671875 C 5.296875 -1.171875 5.65625 -1.953125 5.65625 -2.84375 C 5.65625 -3.90625 4.890625 -4.6875 3.84375 -4.6875 C 3.453125 -4.6875 3.171875 -4.578125 2.828125 -4.3125 L 2.21875 -3.8125 L 2.21875 -4.640625 Z M 2.21875 -3.296875 C 2.4375 -3.625 2.765625 -3.796875 3.171875 -3.796875 C 3.9375 -3.796875 4.390625 -3.203125 4.390625 -2.203125 C 4.390625 -1.171875 3.953125 -0.515625 3.21875 -0.515625 C 2.796875 -0.515625 2.484375 -0.671875 2.21875 -1.0625 Z M 2.21875 -3.296875 "/>
</symbol>
<symbol overflow="visible" id="glyph1-0">
<path style="stroke:none;" d=""/>
</symbol>
<symbol overflow="visible" id="glyph1-1">
<path style="stroke:none;" d="M 2 -5.21875 C 0.8125 -5.21875 0.21875 -4.296875 0.21875 -2.453125 C 0.21875 -1.5625 0.375 -0.796875 0.640625 -0.4375 C 0.90625 -0.0625 1.328125 0.15625 1.796875 0.15625 C 2.953125 0.15625 3.53125 -0.828125 3.53125 -2.78125 C 3.53125 -4.4375 3.03125 -5.21875 2 -5.21875 Z M 1.859375 -4.953125 C 2.59375 -4.953125 2.890625 -4.21875 2.890625 -2.390625 C 2.890625 -0.78125 2.59375 -0.109375 1.90625 -0.109375 C 1.171875 -0.109375 0.859375 -0.875 0.859375 -2.734375 C 0.859375 -4.328125 1.140625 -4.953125 1.859375 -4.953125 Z M 1.859375 -4.953125 "/>
</symbol>
<symbol overflow="visible" id="glyph1-2">
<path style="stroke:none;" d="M 0.5 -4.203125 L 0.578125 -4.203125 L 1.5625 -4.640625 C 1.5625 -4.65625 1.578125 -4.65625 1.578125 -4.65625 C 1.625 -4.65625 1.640625 -4.578125 1.640625 -4.40625 L 1.640625 -0.734375 C 1.640625 -0.328125 1.5625 -0.25 1.15625 -0.234375 L 0.734375 -0.203125 L 0.734375 0.015625 C 1.890625 0 1.890625 0 1.984375 0 C 2.078125 0 2.25 0 2.5 0 C 2.59375 0.015625 2.859375 0.015625 3.171875 0.015625 L 3.171875 -0.203125 L 2.78125 -0.234375 C 2.359375 -0.25 2.28125 -0.328125 2.28125 -0.734375 L 2.28125 -5.21875 L 2.171875 -5.265625 C 1.6875 -5 1.140625 -4.78125 0.453125 -4.53125 Z M 0.5 -4.203125 "/>
</symbol>
<symbol overflow="visible" id="glyph1-3">
<path style="stroke:none;" d="M 0.125 -0.171875 L 0.125 0.015625 C 1.53125 0 1.53125 0 1.8125 0 C 2.078125 0 2.078125 0 3.546875 0.015625 C 3.53125 -0.140625 3.53125 -0.21875 3.53125 -0.3125 C 3.53125 -0.421875 3.53125 -0.5 3.546875 -0.65625 C 2.671875 -0.625 2.328125 -0.609375 0.921875 -0.578125 L 2.296875 -2.046875 C 3.03125 -2.828125 3.265625 -3.25 3.265625 -3.8125 C 3.265625 -4.6875 2.671875 -5.21875 1.71875 -5.21875 C 1.171875 -5.21875 0.796875 -5.0625 0.421875 -4.6875 L 0.296875 -3.65625 L 0.515625 -3.65625 L 0.609375 -4.015625 C 0.734375 -4.453125 1.015625 -4.640625 1.515625 -4.640625 C 2.171875 -4.640625 2.578125 -4.234375 2.578125 -3.578125 C 2.578125 -3.015625 2.265625 -2.453125 1.40625 -1.546875 Z M 0.125 -0.171875 "/>
</symbol>
<symbol overflow="visible" id="glyph1-4">
<path style="stroke:none;" d="M 0.328125 -3.78125 L 0.5625 -3.78125 L 0.703125 -4.203125 C 0.78125 -4.453125 1.265625 -4.71875 1.65625 -4.71875 C 2.140625 -4.71875 2.546875 -4.3125 2.546875 -3.828125 C 2.546875 -3.265625 2.09375 -2.78125 1.5625 -2.78125 C 1.5 -2.78125 1.421875 -2.796875 1.3125 -2.796875 L 1.203125 -2.8125 L 1.109375 -2.40625 L 1.171875 -2.359375 C 1.453125 -2.5 1.59375 -2.53125 1.796875 -2.53125 C 2.4375 -2.53125 2.796875 -2.125 2.796875 -1.4375 C 2.796875 -0.671875 2.328125 -0.15625 1.625 -0.15625 C 1.28125 -0.15625 0.96875 -0.265625 0.75 -0.484375 C 0.5625 -0.65625 0.46875 -0.828125 0.3125 -1.234375 L 0.109375 -1.15625 C 0.265625 -0.703125 0.328125 -0.421875 0.375 -0.046875 C 0.78125 0.09375 1.109375 0.15625 1.390625 0.15625 C 2 0.15625 2.703125 -0.1875 3.109375 -0.703125 C 3.375 -1.015625 3.5 -1.34375 3.5 -1.703125 C 3.5 -2.0625 3.34375 -2.375 3.078125 -2.5625 C 2.890625 -2.703125 2.71875 -2.765625 2.328125 -2.828125 C 2.9375 -3.296875 3.171875 -3.65625 3.171875 -4.09375 C 3.171875 -4.78125 2.609375 -5.21875 1.765625 -5.21875 C 1.25 -5.21875 0.90625 -5.078125 0.546875 -4.71875 Z M 0.328125 -3.78125 "/>
</symbol>
<symbol overflow="visible" id="glyph1-5">
<path style="stroke:none;" d="M 2.125 -1.375 L 2.125 -0.796875 C 2.125 -0.34375 2.03125 -0.25 1.671875 -0.234375 L 1.203125 -0.203125 L 1.203125 0.015625 C 2.203125 0 2.203125 0 2.390625 0 C 2.5625 0 2.5625 0 3.578125 0.015625 L 3.578125 -0.203125 L 3.21875 -0.234375 C 2.84375 -0.25 2.765625 -0.34375 2.765625 -0.796875 L 2.765625 -1.375 C 3.203125 -1.375 3.359375 -1.359375 3.578125 -1.34375 L 3.578125 -1.875 C 3.21875 -1.84375 3.078125 -1.84375 2.96875 -1.859375 L 2.765625 -1.859375 L 2.765625 -2.90625 C 2.765625 -4.265625 2.78125 -4.90625 2.8125 -5.21875 L 2.71875 -5.265625 L 2.15625 -5.046875 L 0.015625 -1.546875 L 0.09375 -1.375 Z M 2.125 -1.859375 L 0.5 -1.859375 L 2.125 -4.53125 Z M 2.125 -1.859375 "/>
</symbol>
<symbol overflow="visible" id="glyph1-6">
<path style="stroke:none;" d="M 0.96875 -4.578125 C 1.9375 -4.546875 2.359375 -4.546875 3.28125 -4.546875 L 3.3125 -4.578125 C 3.296875 -4.71875 3.296875 -4.78125 3.296875 -4.875 C 3.296875 -4.984375 3.296875 -5.046875 3.3125 -5.1875 L 3.28125 -5.21875 C 2.703125 -5.1875 2.359375 -5.1875 1.953125 -5.1875 C 1.53125 -5.1875 1.203125 -5.1875 0.640625 -5.21875 L 0.59375 -5.1875 C 0.609375 -4.71875 0.609375 -4.390625 0.609375 -4.140625 C 0.609375 -3.5 0.59375 -2.78125 0.5625 -2.4375 L 0.71875 -2.390625 C 1.078125 -2.75 1.28125 -2.859375 1.65625 -2.859375 C 2.375 -2.859375 2.828125 -2.34375 2.828125 -1.515625 C 2.828125 -0.6875 2.34375 -0.1875 1.515625 -0.1875 C 1.109375 -0.1875 0.734375 -0.328125 0.625 -0.515625 L 0.28125 -1.140625 L 0.09375 -1.03125 C 0.265625 -0.609375 0.359375 -0.359375 0.46875 -0.03125 C 0.6875 0.078125 0.984375 0.15625 1.3125 0.15625 C 1.8125 0.15625 2.359375 -0.0625 2.78125 -0.4375 C 3.234375 -0.84375 3.484375 -1.359375 3.484375 -1.921875 C 3.484375 -2.78125 2.859375 -3.375 2 -3.375 C 1.640625 -3.375 1.359375 -3.28125 0.890625 -3 Z M 0.96875 -4.578125 "/>
</symbol>
</g>
</defs>
<g id="surface1">
<path style="fill-rule:nonzero;fill:rgb(0%,0%,0%);fill-opacity:1;stroke-width:0.79701;stroke-linecap:butt;stroke-linejoin:miter;stroke:rgb(0%,0%,0%);stroke-opacity:1;stroke-miterlimit:10;" d="M -37.82575 0.00071875 C -37.82575 2.594469 -39.927312 4.696031 -42.521062 4.696031 C -45.114812 4.696031 -47.216375 2.594469 -47.216375 0.00071875 C -47.216375 -2.593031 -45.114812 -4.694594 -42.521062 -4.694594 C -39.927312 -4.694594 -37.82575 -2.593031 -37.82575 0.00071875 Z M -37.82575 0.00071875 " transform="matrix(1,0,0,-1,70.107,67.739)"/>
<g style="fill:rgb(0%,0%,0%);fill-opacity:1;">
  <use xlink:href="#glyph0-1" x="5.861" y="68.793"/>
</g>
<g style="fill:rgb(0%,0%,0%);fill-opacity:1;">
  <use xlink:href="#glyph1-1" x="12.073" y="70.537"/>
</g>
<path style="fill-rule:nonzero;fill:rgb(0%,0%,0%);fill-opacity:1;stroke-width:0.79701;stroke-linecap:butt;stroke-linejoin:miter;stroke:rgb(0%,0%,0%);stroke-opacity:1;stroke-miterlimit:10;" d="M 33.041438 56.692125 C 33.041438 59.285875 30.939875 61.391344 28.346125 61.391344 C 25.752375 61.391344 23.650813 59.285875 23.650813 56.692125 C 23.650813 54.098375 25.752375 51.996813 28.346125 51.996813 C 30.939875 51.996813 33.041438 54.098375 33.041438 56.692125 Z M 33.041438 56.692125 " transform="matrix(1,0,0,-1,70.107,67.739)"/>
<g style="fill:rgb(0%,0%,0%);fill-opacity:1;">
  <use xlink:href="#glyph0-1" x="76.728" y="12.1"/>
</g>
<g style="fill:rgb(0%,0%,0%);fill-opacity:1;">
  <use xlink:href="#glyph1-2" x="82.939" y="13.958"/>
</g>
<path style="fill-rule:nonzero;fill:rgb(0%,0%,0%);fill-opacity:1;stroke-width:0.79701;stroke-linecap:butt;stroke-linejoin:miter;stroke:rgb(0%,0%,0%);stroke-opacity:1;stroke-miterlimit:10;" d="M 118.084406 42.52025 C 118.084406 45.114 115.982844 47.215563 113.389094 47.215563 C 110.795344 47.215563 108.689875 45.114 108.689875 42.52025 C 108.689875 39.9265 110.795344 37.824938 113.389094 37.824938 C 115.982844 37.824938 118.084406 39.9265 118.084406 42.52025 Z M 118.084406 42.52025 " transform="matrix(1,0,0,-1,70.107,67.739)"/>
<g style="fill:rgb(0%,0%,0%);fill-opacity:1;">
  <use xlink:href="#glyph0-1" x="194.847" y="26.273"/>
</g>
<g style="fill:rgb(0%,0%,0%);fill-opacity:1;">
  <use xlink:href="#glyph1-3" x="201.059" y="28.018"/>
</g>
<path style="fill-rule:nonzero;fill:rgb(0%,0%,0%);fill-opacity:1;stroke-width:0.79701;stroke-linecap:butt;stroke-linejoin:miter;stroke:rgb(0%,0%,0%);stroke-opacity:1;stroke-miterlimit:10;" d="M 146.432063 -28.346937 C 146.432063 -25.753187 144.326594 -23.651625 141.732844 -23.651625 C 139.139094 -23.651625 137.037531 -25.753187 137.037531 -28.346937 C 137.037531 -30.940687 139.139094 -33.04225 141.732844 -33.04225 C 144.326594 -33.04225 146.432063 -30.940687 146.432063 -28.346937 Z M 146.432063 -28.346937 " transform="matrix(1,0,0,-1,70.107,67.739)"/>
<g style="fill:rgb(0%,0%,0%);fill-opacity:1;">
  <use xlink:href="#glyph0-1" x="223.194" y="97.139"/>
</g>
<g style="fill:rgb(0%,0%,0%);fill-opacity:1;">
  <use xlink:href="#glyph1-4" x="229.405" y="98.884"/>
</g>
<path style="fill-rule:nonzero;fill:rgb(0%,0%,0%);fill-opacity:1;stroke-width:0.79701;stroke-linecap:butt;stroke-linejoin:miter;stroke:rgb(0%,0%,0%);stroke-opacity:1;stroke-miterlimit:10;" d="M 61.389094 -85.04225 C 61.389094 -82.4485 59.287531 -80.343031 56.693781 -80.343031 C 54.100031 -80.343031 51.998469 -82.4485 51.998469 -85.04225 C 51.998469 -87.636 54.100031 -89.737562 56.693781 -89.737562 C 59.287531 -89.737562 61.389094 -87.636 61.389094 -85.04225 Z M 61.389094 -85.04225 " transform="matrix(1,0,0,-1,70.107,67.739)"/>
<g style="fill:rgb(0%,0%,0%);fill-opacity:1;">
  <use xlink:href="#glyph0-1" x="121.614" y="170.373"/>
</g>
<g style="fill:rgb(0%,0%,0%);fill-opacity:1;">
  <use xlink:href="#glyph1-5" x="127.826" y="172.23"/>
</g>
<path style="fill-rule:nonzero;fill:rgb(0%,0%,100%);fill-opacity:1;stroke-width:0.79701;stroke-linecap:butt;stroke-linejoin:miter;stroke:rgb(0%,0%,100%);stroke-opacity:1;stroke-miterlimit:10;" d="M 61.389094 0.00071875 C 61.389094 2.594469 59.287531 4.696031 56.693781 4.696031 C 54.100031 4.696031 51.998469 2.594469 51.998469 0.00071875 C 51.998469 -2.593031 54.100031 -4.694594 56.693781 -4.694594 C 59.287531 -4.694594 61.389094 -2.593031 61.389094 0.00071875 Z M 61.389094 0.00071875 " transform="matrix(1,0,0,-1,70.107,67.739)"/>
<g style="fill:rgb(0%,0%,0%);fill-opacity:1;">
  <use xlink:href="#glyph0-1" x="121.614" y="52.253"/>
</g>
<g style="fill:rgb(0%,0%,0%);fill-opacity:1;">
  <use xlink:href="#glyph1-6" x="127.826" y="53.997"/>
</g>
<path style="fill:none;stroke-width:1.59404;stroke-linecap:butt;stroke-linejoin:miter;stroke:rgb(0%,0%,0%);stroke-opacity:1;stroke-miterlimit:10;" d="M 52.826594 -81.725844 L -38.653875 -3.315687 " transform="matrix(1,0,0,-1,70.107,67.739)"/>
<path style="fill:none;stroke-width:1.59404;stroke-linecap:butt;stroke-linejoin:miter;stroke:rgb(0%,0%,0%);stroke-opacity:1;stroke-miterlimit:10;" d="M 60.932063 -82.214125 L 137.494563 -31.171156 " transform="matrix(1,0,0,-1,70.107,67.739)"/>
<path style="fill:none;stroke-width:1.59404;stroke-linecap:butt;stroke-linejoin:miter;stroke:rgb(0%,0%,0%);stroke-opacity:1;stroke-miterlimit:10;" d="M 139.842219 -23.616469 L 115.279719 37.789781 " transform="matrix(1,0,0,-1,70.107,67.739)"/>
<path style="fill:none;stroke-width:1.59404;stroke-linecap:butt;stroke-linejoin:miter;stroke:rgb(0%,0%,0%);stroke-opacity:1;stroke-miterlimit:10;" d="M 33.373469 55.856188 L 108.36175 43.356188 " transform="matrix(1,0,0,-1,70.107,67.739)"/>
<path style="fill:none;stroke-width:1.59404;stroke-linecap:butt;stroke-linejoin:miter;stroke:rgb(0%,0%,0%);stroke-opacity:1;stroke-miterlimit:10;" d="M 24.369563 53.512438 L -38.540594 3.184313 " transform="matrix(1,0,0,-1,70.107,67.739)"/>
</g>
</svg>
