<?xml version="1.0" encoding="UTF-8"?>
<svg xmlns="http://www.w3.org/2000/svg" xmlns:xlink="http://www.w3.org/1999/xlink" width="242.51pt" height="180.366pt" viewBox="0 0 242.51 180.366" version="1.1">
<defs>
<g>
<symbol overflow="visible" id="glyph0-0">
<path style="stroke:none;" d=""/>
</symbol>
<symbol overflow="visible" id="glyph0-1">
<path style="stroke:none;" d="M 2.109375 -4.6875 L 1.421875 -4.46875 C 1.078125 -4.375 0.90625 -4.34375 0.40625 -4.28125 L 0.296875 -4.265625 L 0.296875 -3.90625 L 0.734375 -3.875 C 0.96875 -3.859375 1 -3.765625 1 -3.1875 L 1 1.546875 C 1 2.078125 0.953125 2.15625 0.640625 2.1875 L 0.296875 2.203125 L 0.296875 2.578125 L 1.578125 2.546875 C 1.703125 2.546875 1.71875 2.546875 3.015625 2.578125 L 3.015625 2.203125 L 2.578125 2.1875 C 2.265625 2.171875 2.21875 2.078125 2.21875 1.546875 L 2.21875 0 C 2.703125 0.140625 2.859375 0.171875 3.09375 0.171875 C 3.4375 0.171875 3.78125 -0.015625 4.46875 -0.546875 C 4.53125 -0.59375 4.578125 -0.640625 4.640625 -0.671875 C 5.296875 -1.171875 5.65625 -1.953125 5.65625 -2.84375 C 5.65625 -3.90625 4.890625 -4.6875 3.84375 -4.6875 C 3.453125 -4.6875 3.171875 -4.578125 2.828125 -4.3125 L 2.21875 -3.8125 L 2.21875 -4.640625 Z M 2.21875 -3.296875 C 2.4375 -3.625 2.765625 -3.796875 3.171875 -3.796875 C 3.9375 -3.796875 4.390625 -3.203125 4.390625 -2.203125 C 4.390625 -1.171875 3.953125 -0.515625 3.21875 -0.515625 C 2.796875 -0.515625 2.484375 -0.671875 2.21875 -1.0625 Z M 2.21875 -3.296875 "/>
</symbol>
<symbol overflow="visible" id="glyph1-0">
<path style="stroke:none;" d=""/>
</symbol>
<symbol overflow="visible" id="glyph1-1">
<path style="stroke:none;" d="M 0.734375 0.15625 C 1.5625 -0.125 1.9375 -0.296875 2.34375 -0.640625 C 3.078125 -1.265625 3.46875 -2.140625 3.46875 -3.15625 C 3.46875 -4.4375 2.84375 -5.21875 1.84375 -5.21875 C 0.875 -5.21875 0.15625 -4.46875 0.15625 -3.453125 C 0.15625 -2.578125 0.71875 -1.9375 1.515625 -1.9375 C 1.765625 -1.9375 2.0625 -2.015625 2.203125 -2.140625 L 2.734375 -2.578125 C 2.671875 -1.296875 1.84375 -0.375 0.46875 -0.03125 L 0.46875 0.015625 Z M 1.8125 -4.96875 C 2.15625 -4.96875 2.40625 -4.828125 2.578125 -4.53125 C 2.71875 -4.28125 2.796875 -3.90625 2.796875 -3.5625 C 2.796875 -2.875 2.40625 -2.40625 1.8125 -2.40625 C 1.21875 -2.40625 0.796875 -2.9375 0.796875 -3.734375 C 0.796875 -4.5 1.203125 -4.96875 1.8125 -4.96875 Z M 1.8125 -4.96875 "/>
</symbol>
<symbol overflow="visible" id="glyph1-2">
<path style="stroke:none;" d="M 1.265625 -2.609375 C 0.96875 -2.46875 0.828125 -2.390625 0.671875 -2.234375 C 0.375 -1.9375 0.234375 -1.59375 0.234375 -1.203125 C 0.234375 -0.421875 0.859375 0.15625 1.71875 0.15625 C 2.703125 0.15625 3.515625 -0.625 3.515625 -1.5625 C 3.515625 -2.171875 3.234375 -2.5 2.375 -2.890625 C 3.0625 -3.359375 3.296875 -3.671875 3.296875 -4.125 C 3.296875 -4.78125 2.765625 -5.21875 1.96875 -5.21875 C 1.0625 -5.21875 0.40625 -4.640625 0.40625 -3.84375 C 0.40625 -3.328125 0.609375 -3.046875 1.265625 -2.609375 Z M 2.15625 -2.234375 C 2.625 -2.015625 2.921875 -1.65625 2.921875 -1.25 C 2.921875 -0.609375 2.4375 -0.109375 1.828125 -0.109375 C 1.1875 -0.109375 0.765625 -0.5625 0.765625 -1.265625 C 0.765625 -1.8125 0.984375 -2.171875 1.546875 -2.515625 Z M 1.6875 -3.203125 C 1.21875 -3.4375 0.96875 -3.75 0.96875 -4.125 C 0.96875 -4.625 1.328125 -4.96875 1.875 -4.96875 C 2.421875 -4.96875 2.78125 -4.59375 2.78125 -4.046875 C 2.78125 -3.609375 2.59375 -3.3125 2.109375 -3 Z M 1.6875 -3.203125 "/>
</symbol>
<symbol overflow="visible" id="glyph1-3">
<path style="stroke:none;" d="M 0.125 -0.171875 L 0.125 0.015625 C 1.53125 0 1.53125 0 1.8125 0 C 2.078125 0 2.078125 0 3.546875 0.015625 C 3.53125 -0.140625 3.53125 -0.21875 3.53125 -0.3125 C 3.53125 -0.421875 3.53125 -0.5 3.546875 -0.65625 C 2.671875 -0.625 2.328125 -0.609375 0.921875 -0.578125 L 2.296875 -2.046875 C 3.03125 -2.828125 3.265625 -3.25 3.265625 -3.8125 C 3.265625 -4.6875 2.671875 -5.21875 1.71875 -5.21875 C 1.171875 -5.21875 0.796875 -5.0625 0.421875 -4.6875 L 0.296875 -3.65625 L 0.515625 -3.65625 L 0.609375 -4.015625 C 0.734375 -4.453125 1.015625 -4.640625 1.515625 -4.640625 C 2.171875 -4.640625 2.578125 -4.234375 2.578125 -3.578125 C 2.578125 -3.015625 2.265625 -2.453125 1.40625 -1.546875 Z M 0.125 -0.171875 "/>
</symbol>
<symbol overflow="visible" id="glyph1-4">
<path style="stroke:none;" d="M 0.421875 -0.078125 L 0.5 0.015625 C 0.78125 0 0.78125 0 0.84375 0 C 0.890625 0 0.890625 0 1.1875 0.015625 C 1.515625 -0.796875 1.875 -1.59375 2.375 -2.5 L 3.765625 -5 L 3.765625 -5.21875 C 2.953125 -5.1875 2.6875 -5.1875 2.0625 -5.1875 C 1.515625 -5.1875 1.140625 -5.1875 0.40625 -5.21875 L 0.328125 -5.1875 C 0.359375 -4.46875 0.359375 -4.46875 0.359375 -4.390625 C 0.359375 -4.296875 0.359375 -4.296875 0.328125 -3.609375 L 0.5625 -3.609375 L 0.609375 -4.046875 C 0.671875 -4.515625 0.734375 -4.5625 1.078125 -4.5625 L 3.09375 -4.5625 C 2.796875 -3.953125 2.5625 -3.515625 2.28125 -3.046875 Z M 0.421875 -0.078125 "/>
</symbol>
<symbol overflow="visible" id="glyph1-5">
<path style="stroke:none;" d="M 0.96875 -4.578125 C 1.9375 -4.546875 2.359375 -4.546875 3.28125 -4.546875 L 3.3125 -4.578125 C 3.296875 -4.71875 3.296875 -4.78125 3.296875 -4.875 C 3.296875 -4.984375 3.296875 -5.046875 3.3125 -5.1875 L 3.28125 -5.21875 C 2.703125 -5.1875 2.359375 -5.1875 1.953125 -5.1875 C 1.53125 -5.1875 1.203125 -5.1875 0.640625 -5.21875 L 0.59375 -5.1875 C 0.609375 -4.71875 0.609375 -4.390625 0.609375 -4.140625 C 0.609375 -3.5 0.59375 -2.78125 0.5625 -2.4375 L 0.71875 -2.390625 C 1.078125 -2.75 1.28125 -2.859375 1.65625 -2.859375 C 2.375 -2.859375 2.828125 -2.34375 2.828125 -1.515625 C 2.828125 -0.6875 2.34375 -0.1875 1.515625 -0.1875 C 1.109375 -0.1875 0.734375 -0.328125 0.625 -0.515625 L 0.28125 -1.140625 L 0.09375 -1.03125 C 0.265625 -0.609375 0.359375 -0.359375 0.46875 -0.03125 C 0.6875 0.078125 0.984375 0.15625 1.3125 0.15625 C 1.8125 0.15625 2.359375 -0.0625 2.78125 -0.4375 C 3.234375 -0.84375 3.484375 -1.359375 3.484375 -1.921875 C 3.484375 -2.78125 2.859375 -3.375 2 -3.375 C 1.640625 -3.375 1.359375 -3.28125 0.890625 -3 Z M 0.96875 -4.578125 "/>
</symbol>
<symbol overflow="visible" id="glyph1-6">
<path style="stroke:none;" d="M 0.328125 -3.78125 L 0.5625 -3.78125 L 0.703125 -4.203125 C 0.78125 -4.453125 1.265625 -4.71875 1.65625 -4.71875 C 2.140625 -4.71875 2.546875 -4.3125 2.546875 -3.828125 C 2.546875 -3.265625 2.09375 -2.78125 1.5625 -2.78125 C 1.5 -2.78125 1.421875 -2.796875 1.3125 -2.796875 L 1.203125 -2.8125 L 1.109375 -2.40625 L 1.171875 -2.359375 C 1.453125 -2.5 1.59375 -2.53125 1.796875 -2.53125 C 2.4375 -2.53125 2.796875 -2.125 2.796875 -1.4375 C 2.796875 -0.671875 2.328125 -0.15625 1.625 -0.15625 C 1.28125 -0.15625 0.96875 -0.265625 0.75 -0.484375 C 0.5625 -0.65625 0.46875 -0.828125 0.3125 -1.234375 L 0.109375 -1.15625 C 0.265625 -0.703125 0.328125 -0.421875 0.375 -0.046875 C 0.78125 0.09375 1.109375 0.15625 1.390625 0.15625 C 2 0.15625 2.703125 -0.1875 3.109375 -0.703125 C 3.375 -1.015625 3.5 -1.34375 3.5 -1.703125 C 3.5 -2.0625 3.34375 -2.375 3.078125 -2.5625 C 2.890625 -2.703125 2.71875 -2.765625 2.328125 -2.828125 C 2.9375 -3.296875 3.171875 -3.65625 3.171875 -4.09375 C 3.171875 -4.78125 2.609375 -5.21875 1.765625 -5.21875 C 1.25 -5.21875 0.90625 -5.078125 0.546875 -4.71875 Z M 0.328125 -3.78125 "/>
</symbol>
</g>
</defs>
<g id="surface1">
<path style="fill-rule:nonzero;fill:rgb(0%,0%,0%);fill-opacity:1;stroke-width:0.79701;stroke-linecap:butt;stroke-linejoin:miter;stroke:rgb(0%,0%,0%);stroke-opacity:1;stroke-miterlimit:10;" d="M -37.822812 -14.175062 C -37.822812 -11.581312 -39.928281 -9.475844 -42.522031 -9.475844 C -45.115781 -9.475844 -47.217344 -11.581312 -47.217344 -14.175062 C -47.217344 -16.768812 -45.115781 -18.870375 -42.522031 -18.870375 C -39.928281 -18.870375 -37.822812 -16.768812 -37.822812 -14.175062 Z M -37.822812 -14.175062 " transform="matrix(1,0,0,-1,73.19,67.739)"/>
<g style="fill:rgb(0%,0%,0%);fill-opacity:1;">
  <use xlink:href="#glyph0-1" x="5.51" y="82.966"/>
</g>
<g style="fill:rgb(0%,0%,0%);fill-opacity:1;">
  <use xlink:href="#glyph1-1" x="11.722" y="84.711"/>
  <use xlink:href="#glyph1-2" x="15.5078" y="84.711"/>
</g>
<path style="fill-rule:nonzero;fill:rgb(0%,0%,0%);fill-opacity:1;stroke-width:0.79701;stroke-linecap:butt;stroke-linejoin:miter;stroke:rgb(0%,0%,0%);stroke-opacity:1;stroke-miterlimit:10;" d="M 18.868594 56.692125 C 18.868594 59.285875 16.767031 61.391344 14.173281 61.391344 C 11.579531 61.391344 9.477969 59.285875 9.477969 56.692125 C 9.477969 54.098375 11.579531 51.996813 14.173281 51.996813 C 16.767031 51.996813 18.868594 54.098375 18.868594 56.692125 Z M 18.868594 56.692125 " transform="matrix(1,0,0,-1,73.19,67.739)"/>
<g style="fill:rgb(0%,0%,0%);fill-opacity:1;">
  <use xlink:href="#glyph0-1" x="65.638" y="12.1"/>
</g>
<g style="fill:rgb(0%,0%,0%);fill-opacity:1;">
  <use xlink:href="#glyph1-3" x="71.85" y="13.844"/>
</g>
<path style="fill-rule:nonzero;fill:rgb(0%,0%,0%);fill-opacity:1;stroke-width:0.79701;stroke-linecap:butt;stroke-linejoin:miter;stroke:rgb(0%,0%,0%);stroke-opacity:1;stroke-miterlimit:10;" d="M 118.083438 42.52025 C 118.083438 45.114 115.981875 47.215563 113.388125 47.215563 C 110.794375 47.215563 108.692813 45.114 108.692813 42.52025 C 108.692813 39.9265 110.794375 37.824938 113.388125 37.824938 C 115.981875 37.824938 118.083438 39.9265 118.083438 42.52025 Z M 118.083438 42.52025 " transform="matrix(1,0,0,-1,73.19,67.739)"/>
<g style="fill:rgb(0%,0%,0%);fill-opacity:1;">
  <use xlink:href="#glyph0-1" x="197.931" y="26.273"/>
</g>
<g style="fill:rgb(0%,0%,0%);fill-opacity:1;">
  <use xlink:href="#glyph1-4" x="204.143" y="28.018"/>
</g>
<path style="fill-rule:nonzero;fill:rgb(0%,0%,0%);fill-opacity:1;stroke-width:0.79701;stroke-linecap:butt;stroke-linejoin:miter;stroke:rgb(0%,0%,0%);stroke-opacity:1;stroke-miterlimit:10;" d="M 146.431094 -28.346937 C 146.431094 -25.753187 144.329531 -23.651625 141.735781 -23.651625 C 139.142031 -23.651625 137.036563 -25.753187 137.036563 -28.346937 C 137.036563 -30.940687 139.142031 -33.04225 141.735781 -33.04225 C 144.329531 -33.04225 146.431094 -30.940687 146.431094 -28.346937 Z M 146.431094 -28.346937 " transform="matrix(1,0,0,-1,73.19,67.739)"/>
<g style="fill:rgb(0%,0%,0%);fill-opacity:1;">
  <use xlink:href="#glyph0-1" x="226.277" y="97.139"/>
</g>
<g style="fill:rgb(0%,0%,0%);fill-opacity:1;">
  <use xlink:href="#glyph1-5" x="232.489" y="98.884"/>
</g>
<path style="fill-rule:nonzero;fill:rgb(0%,0%,0%);fill-opacity:1;stroke-width:0.79701;stroke-linecap:butt;stroke-linejoin:miter;stroke:rgb(0%,0%,0%);stroke-opacity:1;stroke-miterlimit:10;" d="M 61.388125 -85.04225 C 61.388125 -82.4485 59.286563 -80.343031 56.692813 -80.343031 C 54.099063 -80.343031 51.9975 -82.4485 51.9975 -85.04225 C 51.9975 -87.636 54.099063 -89.737562 56.692813 -89.737562 C 59.286563 -89.737562 61.388125 -87.636 61.388125 -85.04225 Z M 61.388125 -85.04225 " transform="matrix(1,0,0,-1,73.19,67.739)"/>
<g style="fill:rgb(0%,0%,0%);fill-opacity:1;">
  <use xlink:href="#glyph0-1" x="124.698" y="170.373"/>
</g>
<g style="fill:rgb(0%,0%,0%);fill-opacity:1;">
  <use xlink:href="#glyph1-6" x="130.909" y="172.117"/>
</g>
<path style="fill:none;stroke-width:1.59404;stroke-linecap:butt;stroke-linejoin:miter;stroke:rgb(0%,0%,0%);stroke-opacity:1;stroke-miterlimit:10;" d="M 47.001406 -78.120375 L -38.373594 -17.136 " transform="matrix(1,0,0,-1,73.19,67.739)"/>
<path style=" stroke:none;fill-rule:nonzero;fill:rgb(0%,0%,0%);fill-opacity:1;" d="M 125.738281 149.816406 C 124.316406 148.335938 122.304688 145.503906 121.226562 143.105469 L 117.925781 147.726562 C 120.546875 147.96875 123.875 148.953125 125.738281 149.816406 "/>
<path style="fill:none;stroke-width:1.59404;stroke-linecap:butt;stroke-linejoin:miter;stroke:rgb(0%,0%,0%);stroke-opacity:1;stroke-miterlimit:10;" d="M 60.931094 -82.214125 L 131.825625 -34.952406 " transform="matrix(1,0,0,-1,73.19,67.739)"/>
<path style=" stroke:none;fill-rule:nonzero;fill:rgb(0%,0%,0%);fill-opacity:1;" d="M 210.683594 98.910156 C 208.796875 99.714844 205.433594 100.589844 202.808594 100.75 L 205.960938 105.472656 C 207.113281 103.113281 209.214844 100.347656 210.683594 98.910156 "/>
<path style="fill:none;stroke-width:1.59404;stroke-linecap:butt;stroke-linejoin:miter;stroke:rgb(0%,0%,0%);stroke-opacity:1;stroke-miterlimit:10;" d="M 139.84125 -23.616469 L 117.81 31.461656 " transform="matrix(1,0,0,-1,73.19,67.739)"/>
<path style=" stroke:none;fill-rule:nonzero;fill:rgb(0%,0%,0%);fill-opacity:1;" d="M 188.46875 29.949219 C 188.867188 31.964844 189.03125 35.433594 188.644531 38.035156 L 193.917969 35.925781 C 191.84375 34.308594 189.570312 31.683594 188.46875 29.949219 "/>
<path style="fill:none;stroke-width:1.59404;stroke-linecap:butt;stroke-linejoin:miter;stroke:rgb(0%,0%,0%);stroke-opacity:1;stroke-miterlimit:10;" d="M 25.962344 55.008531 L 108.345156 43.239 " transform="matrix(1,0,0,-1,73.19,67.739)"/>
<path style=" stroke:none;fill-rule:nonzero;fill:rgb(0%,0%,0%);fill-opacity:1;" d="M 92.40625 11.765625 C 94.351562 12.425781 97.4375 14.015625 99.5 15.648438 L 100.304688 10.027344 C 97.867188 11.015625 94.460938 11.675781 92.40625 11.765625 "/>
<path style="fill:none;stroke-width:1.59404;stroke-linecap:butt;stroke-linejoin:miter;stroke:rgb(0%,0%,0%);stroke-opacity:1;stroke-miterlimit:10;" d="M 10.989688 52.715563 L -35.080625 -4.874281 " transform="matrix(1,0,0,-1,73.19,67.739)"/>
<path style=" stroke:none;fill-rule:nonzero;fill:rgb(0%,0%,0%);fill-opacity:1;" d="M 33.851562 77.933594 C 35.410156 76.59375 38.34375 74.742188 40.800781 73.796875 L 36.363281 70.25 C 35.980469 72.851562 34.816406 76.121094 33.851562 77.933594 "/>
</g>
</svg>
